{"intents": [
	{"class":"greetings",
	 "sentence":
	 [
     "សួស្ដី",
     "ជម្រាបសួរ",
     "អ្នកសុខសប្បាយជាទេ?",
     "អ្នកសុខសប្បាយទេ?",
     "សុខសប្បាយទេ?",
     "សុខសប្បាយជាទេ?",
     "ថ្ងៃនេះពិតជាល្អមែន មែនទេ?",
     "ថ្ងៃនេះពិតជាល្អមែន មែនដែរទេ?",
     "ថ្ងៃនេះល្អមែន មែនដែរទេ?",
     "ថ្ងៃនេះល្អ មែនទេ?",
     "ថ្ងៃនេះជាថ្ងៃល្អណាស់ មែនទេ?",
     "សូមស្វាគមន៍",
     "ស្វាគមន៍",
     "អរុណសួស្ដី",
     "សាយនសួស្ដី",
     "ព្រលប់សួស្ដី",
     "រសៀលសួស្ដី"
	 ]
	},
	{"class":"goodbye",
   "sentence":
     [
     "លាហើយ",
     "ជម្រាបលា",
     "លាសិនហើយ",
     "សូមលាសិនហើយ",
     "សូមលាហើយ",
     "ជួបគ្នាពេលក្រោយ",
     "ជួបគ្នានាពេលក្រោយ",
     "ជួបគ្នាលើកក្រោយ",
     "ជួបគ្នាបន្តិចឆាប់នេះ",
     "ជួបគ្នាបន្តិចឆាប់នេះ",
     "ជួបគ្នាបន្តិចឆាប់",
     "សូមមានសំណាងល្អ",
     "សូមមានថ្ងៃល្អ",
     "សំណាងល្អ",
     "សម្រាកទៅ",
     "សម្រាកចុះ",
     "សម្រាកបន្តិចសិនទៅ",
     "សម្រាកបន្តិចសិនចុះ",
     "សូមជម្រាបលា"
	 ]
	},
	{"class":"name",
	 "sentence":
	 [
	 "អ្នកឈ្មោះអ្វី?",
	 "ឈ្មោះអ្វីដែរ",
	 "មានព្រះនាមអ្វី",
     "អ្នកជានរណា?",
	 "នរណាគេហ្នឹង"
	 ]
	},
	{"class":"age",
	 "sentence":
	 [
	 "មានអាយុប៉ុន្មាន?",
	 "ឆ្នាំនេះអាយុប៉ុន្មាន?",
	 "ជាតាអាយុប៉ុន្មាន?"
	 ]
	},
	{"class":"relationship",
	 "sentence":
	 [
	 "មានសង្សារនៅ?",
	 "មានគូរស្រករនៅ?",
	 "មានគូរជីវិតនៅ"
	 ]
	},
	{"class":"holiday",
	 "sentence":
	 [
	 "ខែនេះមានថ្ងៃណាឈប់សំរាក់ខ្លះ?",
	 "ខែនេះឈប់ថ្ងៃណាខ្លះ?",
	 "ថ្ងៃណាឈប់ខ្លះ?"
	 ]
	},
	{"class":"budha_day",
	 "sentence":
	 [
	 "ថ្ងៃនេះជាថ្ងៃសិលមានទេ?",
	 "ថ្ងៃសិលពេលណាដែរ?",
	 "ថ្ងៃណាថ្ងៃសិល"
	 ]
	},
	{"class":"date",
	 "sentence":
	 [
	 "ថ្ងៃនេះជាថ្ងៃអ្វី?",
	 "ម៉ោងប៉ុន្មាន?"
	 ]
	},
	{"class":"thanks",
	 "sentence":
	 [
	 "អរគុណ",    
	 "អរគុណ​ច្រើន",
	 "អរគុណ​អ្នកខ្លាំងណាស់"
	 ]
	}
	
]}
