{"intents": [
	{"class":"greetings",
	 "sentence":
	 [
     "សួស្ដី",
     "ជម្រាបសួរ",
     "អ្នកសុខសប្បាយជាទេ?",
     "អ្នកសុខសប្បាយទេ?",
     "សុខសប្បាយទេ?",
     "សុខសប្បាយជាទេ?",
     "ថ្ងៃនេះពិតជាល្អមែន មែនទេ?",
     "ថ្ងៃនេះពិតជាល្អមែន មែនដែរទេ?",
     "ថ្ងៃនេះល្អមែន មែនដែរទេ?",
     "ថ្ងៃនេះល្អ មែនទេ?",
     "ថ្ងៃនេះជាថ្ងៃល្អណាស់ មែនទេ?",
     "សូមស្វាគមន៍",
     "ស្វាគមន៍",
     "អរុណសួស្ដី",
     "សាយនសួស្ដី",
     "ព្រលប់សួស្ដី",
     "រសៀលសួស្ដី"
	 ]
	},
	{"class":"goodbye",
   "sentence":
     [
     "លាហើយ",
     "ជម្រាបលា",
     "លាសិនហើយ",
     "សូមលាសិនហើយ",
     "សូមលាហើយ",
     "ជួបគ្នាពេលក្រោយ",
     "ជួបគ្នានាពេលក្រោយ",
     "ជួបគ្នាលើកក្រោយ",
     "ជួបគ្នាបន្តិចឆាប់នេះ",
     "ជួបគ្នាបន្តិចឆាប់នេះ",
     "ជួបគ្នាបន្តិចឆាប់",
     "សូមមានសំណាងល្អ",
     "សូមមានថ្ងៃល្អ",
     "សំណាងល្អ",
     "សម្រាកទៅ",
     "សម្រាកចុះ",
     "សម្រាកបន្តិចសិនទៅ",
     "សម្រាកបន្តិចសិនចុះ",
     "សូមជម្រាបលា"
	 ]
	},
	{"class":"embassy",
	 "sentence":
	 [
	 "ស្ថានទូតជិតបំផុតនៅឯណា?",
	 "អាស័យដ្ឋានរបស់ស្ថានទូតនៅឯណា?",
	 "ស្ថានទូតបើកទេថ្ងៃនេះ?",
     "កន្លែងណាដែលុអាចធ្វើVisa បាន?",
	 "ស្ថានទូតបើកនៅពេលណា?",
	 "មានស្ថានទូតមួយណានៅជិតនេះទេ?",
	 "អ្នកអាចបង្ហាញស្ថានទូតជិតបំផុតបានទេ?",
	 "ស្ថានទូតនៅឯណាដែរ?",
	 "អាចធ្វើVisaនៅទីណាខ្លះ?",
	 "អ្នកអាចបង្ហាញពីកន្លែងធ្វើVisaបានទេ?",
	 "កន្លែងដែលត្រូវធ្វើេVisaនៅណា?"
	 ]
	},
	{"class":"price",
	 "sentence":
	 [
	 "វាមានតំលៃប៉ុន្មាន?",
	 "វាថ្លៃទេ?",
	 "វាថ្លៃប៉ុន្មាន?",
	 "របស់នេះថ្លៃប៉ុន្មានដែរ?",
	 "គួរឱ្យលុយប៉ុន្មាន?",
	 "នឹងត្រូវចំណាយអស់ប៉ុន្មានសម្រាប់របស់នេះ?",
	 "វាមានតម្លៃថោកគួរសម",
	 "របស់នេះថ្លៃប៉ុន្មានដែរទៅ?",
	 "Visa មួយមានតំលៃប៉ុន្មាន?",
	 "តម្លៃជាមធ្យមដើម្បីធ្វើVisa ប៉ុន្មាន?",
	 "ត្រូវចំណាយលើអ្វីខ្លះ",
	 "ត្រូវបង់ប៉ុន្មាន?",
	 "ត្រូវបង់ប្រាក់ប៉ុន្មានដុល្លារ?",
	 "​វា​ថ្លៃ​ប៉ុន្មាន​?",
	 "​វា​មានតម្លៃ​ប៉ុន្មាន?"
	 ]
	},
	{"class":"need",
	 "sentence":
	 [
	 "មិនត្រូវការVisaទេ?",
	 "អាចជួយអ្នកបានទេ?",
	 "ត្រូវការជំនួយរបស់អ្នក",
	 "ត្រូវការជួយពីអ្នក",
	 "​ត្រូវការ​អ្នក",
	 "​ត្រូវ​ការ​ការជួយ​ពី​អ្នក",
	 "ត្រូវការVisa",
	 "ចាំបាច់ត្រូវមានVisaអត់ដើម្បីធ្វើដំណើរទៅប្រទេសអូស្ត្រាលី?",
	 "ប្រទេសកម្ពុជាត្រូវការ Visa ដែរឬទេ?",
	 "ត្រូវការដាក់ពាក្យសុំធ្វើVisaដែរទេ?",
     "ចាំបាច់ត្រូវមានVisaអត់ដើម្បីធ្វើដំណើរទៅប្រទេសកម្ពុជា?",
     "ទៅប្រទេសអាមេរិកចាំបាច់ត្រូវការ Visa ដែរទេ?"
	 ]
	},
	{"class":"procedure",
	 "sentence":
	 [
	 "អាចបង្កើត​​ VISA បានដោយរបៀបណា?",
	 "ទម្រង់នៃដំណើរការនេះប្រើពេលប៉ុន្មាន?",
	 "អ្នកអាចជួយជាមួយនឹងសំណើរនេះទេ?",
	 "មានជាច្រើនជំហាននៅក្នុងទម្រង់នៃដំណើរការនេះ",
	 "ត្រូវកាអ្វីខ្លះដើម្បីសុំ VISA?",
	 "ឯកសារណាខ្លះដែលគូរតែសុំ?",
	 "អ្នកអាចរាប់នូវជំហានទាំងអស់បានទេ?",
	 "ឯកសារមួយណាដែលត្រូវការសំរាប់ដើម្បីទទូលបានVISA?",
	 "មានតម្រូវការច្រើនមែនទេសំរាប់VISAនេះ?",
	 "ជំហានអ្វីខ្លះដែលត្រូវបំពេញដើម្បីទទួលបានVISA?",
	 "អ្នកអាចបង្ហាញជាបញ្ចីនៃតម្រូវការសំរាប់VISAមួយបានទេ?",
	 "មានជំហានចាំបាច់អ្វីខ្លះដែលត្រូវធ្វើតាមដើម្បីទទួលបានVISAរបស់?",
	 "មានឯកសារប្រភេទអ្វីខ្លះដែលត្រូវការដើម្បីទទួលបានVISAរបស់?"
	 ]
	},
	{"class":"time",
	 "sentence":
	 [
	 "វាត្រូវការពេលប៉ុន្មានសប្តាហ៏?",
	 "វាត្រូវការពេលប៉ុន្មានថ្ងៃ?",
	 "វាត្រូវការពេលប៉ុន្មានខែ?",
	 "វាត្រូវការពេលប៉ុន្មានឆ្នាំ?",
	 "នៅពេលណាVISAរបស់អាចយកជាការបាន?",
	 "វាត្រូវការពេលប៉ុន្មាន?",
	 "ត្រូវរង់ចាំយូរទៀតមែនទេ?",
	 "ត្រូវការពេលប៉ុន្មានទើបទទួលបានVISA?",
	 "ចាំបាច់ទទួលយកវាអោយរហ័សមែនទេ?",
	 "សីុពេលប៉ុន្មានថ្ងៃ?",
	 "អ្នកអាចធ្វើVISAហ្នឹងអោយលឿនបានទេ?",
	 "វានឹងត្រូវការពេលប៉ុន្មាន?",
	 "យើងចាំបាច់ត្រូវតែប្រយ៉ាប់",
	 "នៅពេលណាដែលអាចទទួលបានVISAត្រលប់មកវិញ?",
	 "ត្រូវរង់ចាំរយះពេលប៉ុន្មានខែ?",
	 "ត្រូវការរយះពេលប៉ុន្មានខែដើម្បីរង់ចាំ?"
	 ]
	},
	{"class":"type",
	 "sentence":
	 [
	 "អាចទទួលបានVISAប៉ុន្មានប្រភេទ?",
	 "អាចទទួលបានVISAប្រភេទអ្វី?",
	 "មានVISAប៉ុន្មានប្រភេទ?",
	 "ប្រភេទមួយណាដែលគួរតែយក?",
	 "មានជំរើសប៉ុន្មានដែលស្នើរឡើង?",
	 "អ្វីជា business visa និង tourist visa?",
	 "​tourist visaគ្រប់គ្រាន់ដែរឫទេ?",
	 "VISA ប្រភេទណាដែលអាចមានលទ្ធភាព?",
	 "VISAប្រភាទណាដែលត្រូវការ?",
	 "VISAប្រភេទណាដែលអាចទទួលយកបាន?",
	 "VISAប្រភេទផ្សេងៗគ្នាណាខ្លះដែលអាចទទួលបាន?",
	 "VISAប្រភេទណាដែលអ្នកចង់អៅយទទួលយក?",
	 "មានVISAប៉ុន្មានដែលអាចយកជាការបានដើម្បីធ្វើដំណើរទៅប្រទេសមួយនេះ?",
	 "ត្រូវការVISAប្រភេទណា?",
	 "មានVISAប៉ុន្មានប្រភេទនៅប្រទេសកម្ពុជា",
	 "VISAប្រភេទអ្វីដែលត្រូវការ?",
	 "VISAប្រភេទណាមួយដែលត្រូវការទទួលយក?",
	 "VISAណាមួយដែលត្រូវការដើម្បីទៅប្រទេសអុូស្រ្តាលី?"
	 ]
	},
	{"class":"thanks",
	 "sentence":
	 [
	 	"អរគុណ",
	 	"អរគុណ​ច្រើន",
		"អរគុណ​អ្នកខ្លាំងណាស់",
		"t"
	 ]
	}
	,
	{"class":"function",
	 "sentence":
	 [
	 "​អ្នក​អាច​ធ្វើអ្វី​បានខ្លះ?",
	 "អ្នកអាចជួយយ៉ាងដូចម្តេច?",
	 "​អ្នក​អាច​ជួយ​​បាន​ទេ?",
	 "អ្នកអាចធ្វើអ្វីខ្លះសម្រាប់?",
	 "អ្វីជាមុខងាររបស់អ្នក?",
	 "អ្វីខ្លះជាជំនាញរបស់អ្នក?",
	 "អ្នកមានសមត្ថភាពអ្វីខ្លះ?",
	 "អ្នកអាចធ្វើអ្វីបានខ្លះ?",
	 "អ្វីជាគោលបំណងរបស់អ្នក?",
	 "អ្វីដែលអាចសួរអ្នកបាន?",
	 "អ្នកអាចជួយយ៉ាងដូចម្តេច?",
	 "អ្នកអាចជួយបានតាមរបៀបណា?",
	 "អ្វីខ្លះដែលអាចសួរអ្នកបាន?",
	 "ហេតុអ្វីបានជាអ្នកបង្កើតវាឡើង?",
	 "អ្នកមានប្រយោជន៍អ្វីខ្លុះសម្រាប់?",
	 "សំណួរអ្វីដែលអ្នកអាចឆ្លើយបាន?",
	 "​អ្នក​ធ្វើការ​អ្វី​?",
	 "​អ្នក​មាន​មុខរបរ​អ្វី?",
	 "អ្នកអាចប្រាប់បានទេ?",
	 "ព័ត៌មានមួយណាដែលអ្នកអាចផ្តល់ឱ្យ?",
	 "​វា​ដំណើរការ​យ៉ាង​ដូចម្តេច?",
	 "ជួយផង",
	 "​ត្រូវការ​ជំនួយ",
	 "អ្នកអាចធ្វើអ្វីមួយដើម្បីជួយបានទេ?",
	 "អ្នកអាចបង្ហាញឯកសារអំពីវិធីប្រើ chatbot នេះបានទេ ?"
	 ]
	}
]}
